GIS714_FIN
…
# convert date column to date class
#Requested
Lumberton_Muck$Requested <- as.Date(Lumberton_Muck$Requested,
                        format = "%m/%d/%y")
Lumberton_Tree$Requested <- as.Date(Lumberton_Tree$Requested,
                        format = "%m/%d/%y")
#Last_Updat
Lumberton_Muck$Last_Updat <- as.Date(Lumberton_Muck$Last_Updat,
                        format = "%m/%d/%y")
Lumberton_Tree$Last_Updat <- as.Date(Lumberton_Tree$Last_Updat,
                        format = "%m/%d/%y")

Lumberton_Tree %>% group_by(Requested) %>% summarise(frequency = n())

## # A tibble: 27 x 2
##    Requested  frequency
##    <date>         <int>
##  1 2018-09-16         1
##  2 2018-09-18         1
##  3 2018-09-20         1
##  4 2018-09-21         2
##  5 2018-09-22         1
##  6 2018-09-24         4
##  7 2018-09-26         5
##  8 2018-09-27        12
##  9 2018-09-28         3
## 10 2018-09-29         4
## #  with 17 more rows
…
